<?xml version="1.0" encoding="UTF-8" standalone="no"?>
<!-- Created with Inkscape (http://www.inkscape.org/) -->

<svg:svg
   width="750"
   height="450"
   id="svg2"
   sodipodi:version="0.32"
   inkscape:version="1.2.2 (b0a8486541, 2022-12-01)"
   sodipodi:docname="Adresse_Ipv4.svg"
   inkscape:output_extension="org.inkscape.output.svg.inkscape"
   version="1.0"
   sodipodi:modified="true"
   xmlns:inkscape="http://www.inkscape.org/namespaces/inkscape"
   xmlns:sodipodi="http://sodipodi.sourceforge.net/DTD/sodipodi-0.dtd"
   xmlns:xlink="http://www.w3.org/1999/xlink"
   xmlns:svg="http://www.w3.org/2000/svg"
   xmlns:rdf="http://www.w3.org/1999/02/22-rdf-syntax-ns#"
   xmlns:cc="http://creativecommons.org/ns#"
   xmlns:dc="http://purl.org/dc/elements/1.1/"
   xmlns:xhtml="http://www.w3.org/1999/xhtml">
  <style
     id="autoconsent-prehide" />
  <xhtml:iframe
     class="cleanslate hidden"
     src="Adresse_Ipv4_fichiers/commandline.html"
     id="cmdline_iframe"
     loading="lazy"
     style="height: 0px !important;" />
  <svg:defs
     id="defs4" />
  <sodipodi:namedview
     id="base"
     pagecolor="#ffffff"
     bordercolor="#666666"
     borderopacity="1.0"
     gridtolerance="10000"
     guidetolerance="10"
     objecttolerance="10"
     inkscape:pageopacity="0.0"
     inkscape:pageshadow="2"
     inkscape:zoom="0.7"
     inkscape:cx="392.85714"
     inkscape:cy="300"
     inkscape:document-units="px"
     inkscape:current-layer="layer1"
     inkscape:window-width="1920"
     inkscape:window-height="1011"
     inkscape:window-x="0"
     inkscape:window-y="0"
     height="450px"
     width="750px"
     showgrid="false"
     inkscape:showpageshadow="true"
     inkscape:pagecheckerboard="0"
     inkscape:deskcolor="#d1d1d1"
     inkscape:window-maximized="1" />
  <svg:metadata
     id="metadata7">
    <rdf:RDF>
      <cc:Work
         rdf:about="">
        <dc:format>image/svg+xml</dc:format>
        <dc:type
           rdf:resource="http://purl.org/dc/dcmitype/StillImage" />
      </cc:Work>
    </rdf:RDF>
  </svg:metadata>
  <svg:g
     inkscape:label="Layer 1"
     inkscape:groupmode="layer"
     id="layer1">
    <svg:text
       xml:space="preserve"
       style="font-style:normal;font-weight:normal;line-height:0%;font-family:'Bitstream Vera Sans';fill:#969696;fill-opacity:1;stroke:#969696;stroke-width:1px;stroke-linecap:butt;stroke-linejoin:miter;stroke-opacity:1"
       x="193.94901"
       y="178.58"
       id="text3177"
       inkscape:export-filename="ipv4.png"
       inkscape:export-xdpi="1002"
       inkscape:export-ydpi="1002"><svg:tspan
         sodipodi:role="line"
         id="tspan3179"
         x="193.94901"
         y="178.58"
         style="font-size:32px;line-height:1.25;fill:#969696;fill-opacity:1;stroke:#969696;stroke-opacity:1"> </svg:tspan></svg:text>
    <svg:text
       xml:space="preserve"
       style="font-style:normal;font-weight:normal;line-height:0%;font-family:'Bitstream Vera Sans';fill:#969696;fill-opacity:1;stroke:#969696;stroke-width:1px;stroke-linecap:butt;stroke-linejoin:miter;stroke-opacity:1"
       x="25.960938"
       y="63.039375"
       id="text3141"><svg:tspan
         sodipodi:role="line"
         id="tspan3143"
         x="25.960938"
         y="63.039375"
         style="font-size:32px;line-height:1.25;fill:#969696;fill-opacity:1;stroke:#969696;stroke-opacity:1">Une adresse IPv4 (notation décimale à point)</svg:tspan></svg:text>
    <svg:text
       xml:space="preserve"
       style="font-style:normal;font-weight:normal;line-height:0%;font-family:'Bitstream Vera Sans';fill:#969696;fill-opacity:1;stroke:#969696;stroke-width:1px;stroke-linecap:butt;stroke-linejoin:miter;stroke-opacity:1"
       x="59.486599"
       y="143.71001"
       id="text2160"><svg:tspan
         sodipodi:role="line"
         id="tspan2162"
         x="59.486599"
         y="143.71001"
         style="font-weight:bold;font-size:48px;line-height:1.25;fill:#969696;fill-opacity:1;stroke:#969696;stroke-opacity:1">172</svg:tspan></svg:text>
    <svg:text
       id="text3153"
       y="143.03"
       x="252.55299"
       style="font-style:normal;font-weight:normal;line-height:0%;font-family:'Bitstream Vera Sans';fill:#969696;fill-opacity:1;stroke:#969696;stroke-width:1px;stroke-linecap:butt;stroke-linejoin:miter;stroke-opacity:1"
       xml:space="preserve"><svg:tspan
         style="font-weight:bold;font-size:48px;line-height:1.25;fill:#969696;fill-opacity:1;stroke:#969696;stroke-opacity:1"
         y="143.03"
         x="252.55299"
         id="tspan3155"
         sodipodi:role="line">16</svg:tspan></svg:text>
    <svg:text
       id="text3157"
       y="143.71001"
       x="625.02698"
       style="font-style:normal;font-weight:normal;line-height:0%;font-family:'Bitstream Vera Sans';fill:#969696;fill-opacity:1;stroke:#969696;stroke-width:1px;stroke-linecap:butt;stroke-linejoin:miter;stroke-opacity:1"
       xml:space="preserve"><svg:tspan
         style="font-weight:bold;font-size:48px;line-height:1.25;fill:#969696;fill-opacity:1;stroke:#969696;stroke-opacity:1"
         y="143.71001"
         x="625.02698"
         id="tspan3159"
         sodipodi:role="line">1</svg:tspan></svg:text>
    <svg:text
       id="text3161"
       y="143.03"
       x="413.66299"
       style="font-style:normal;font-weight:normal;line-height:0%;font-family:'Bitstream Vera Sans';fill:#969696;fill-opacity:1;stroke:#969696;stroke-width:1px;stroke-linecap:butt;stroke-linejoin:miter;stroke-opacity:1"
       xml:space="preserve"><svg:tspan
         style="font-weight:bold;font-size:48px;line-height:1.25;fill:#969696;fill-opacity:1;stroke:#969696;stroke-opacity:1"
         y="143.03"
         x="413.66299"
         id="tspan3163"
         sodipodi:role="line">254</svg:tspan></svg:text>
    <svg:text
       xml:space="preserve"
       style="font-style:normal;font-weight:bold;line-height:0%;font-family:'Bitstream Vera Sans';fill:#969696;fill-opacity:1;stroke:#969696;stroke-width:1px;stroke-linecap:butt;stroke-linejoin:miter;stroke-opacity:1"
       x="190.576"
       y="143.71001"
       id="text3185"><svg:tspan
         sodipodi:role="line"
         id="tspan3187"
         x="190.576"
         y="143.71001"
         style="font-size:48px;line-height:1.25;fill:#969696;fill-opacity:1;stroke:#969696;stroke-opacity:1">.</svg:tspan></svg:text>
    <svg:text
       xml:space="preserve"
       style="font-style:normal;font-weight:bold;line-height:0%;font-family:'Bitstream Vera Sans';fill:#969696;fill-opacity:1;stroke:#969696;stroke-width:1px;stroke-linecap:butt;stroke-linejoin:miter;stroke-opacity:1"
       x="372.741"
       y="143.71001"
       id="text3189"><svg:tspan
         sodipodi:role="line"
         id="tspan3191"
         x="372.741"
         y="143.71001"
         style="font-size:48px;line-height:1.25;fill:#969696;fill-opacity:1;stroke:#969696;stroke-opacity:1">.</svg:tspan></svg:text>
    <svg:text
       xml:space="preserve"
       style="font-style:normal;font-weight:bold;line-height:0%;font-family:'Bitstream Vera Sans';fill:#969696;fill-opacity:1;stroke:#969696;stroke-width:1px;stroke-linecap:butt;stroke-linejoin:miter;stroke-opacity:1"
       x="560.125"
       y="143.71001"
       id="text3193"><svg:tspan
         sodipodi:role="line"
         id="tspan3195"
         x="560.125"
         y="143.71001"
         style="font-size:48px;line-height:1.25;fill:#969696;fill-opacity:1;stroke:#969696;stroke-opacity:1">.</svg:tspan></svg:text>
    <svg:text
       xml:space="preserve"
       style="font-style:normal;font-weight:normal;line-height:0%;font-family:'Bitstream Vera Sans';fill:#969696;fill-opacity:1;stroke:#969696;stroke-width:1px;stroke-linecap:butt;stroke-linejoin:miter;stroke-opacity:1"
       x="27.994499"
       y="241.103"
       id="text3149"><svg:tspan
         sodipodi:role="line"
         id="tspan3151"
         x="27.994499"
         y="241.103"
         style="font-size:32px;line-height:1.25;fill:#969696;fill-opacity:1;stroke:#969696;stroke-opacity:1">10101100</svg:tspan></svg:text>
    <svg:text
       xml:space="preserve"
       style="font-style:normal;font-weight:normal;line-height:0%;font-family:'Bitstream Vera Sans';fill:#969696;fill-opacity:1;stroke:#969696;stroke-width:1px;stroke-linecap:butt;stroke-linejoin:miter;stroke-opacity:1"
       x="205.87399"
       y="241.103"
       id="text3165"><svg:tspan
         sodipodi:role="line"
         id="tspan3167"
         x="205.87399"
         y="241.103"
         style="font-size:32px;line-height:1.25;fill:#969696;fill-opacity:1;stroke:#969696;stroke-opacity:1">00010000</svg:tspan></svg:text>
    <svg:text
       xml:space="preserve"
       style="font-style:normal;font-weight:normal;line-height:0%;font-family:'Bitstream Vera Sans';fill:#969696;fill-opacity:1;stroke:#969696;stroke-width:1px;stroke-linecap:butt;stroke-linejoin:miter;stroke-opacity:1"
       x="382.34698"
       y="241.103"
       id="text3169"><svg:tspan
         sodipodi:role="line"
         id="tspan3171"
         x="382.34698"
         y="241.103"
         style="font-size:32px;line-height:1.25;fill:#969696;fill-opacity:1;stroke:#969696;stroke-opacity:1">11111110</svg:tspan></svg:text>
    <svg:text
       xml:space="preserve"
       style="font-style:normal;font-weight:normal;line-height:0%;font-family:'Bitstream Vera Sans';fill:#969696;fill-opacity:1;stroke:#969696;stroke-width:1px;stroke-linecap:butt;stroke-linejoin:miter;stroke-opacity:1"
       x="560.22601"
       y="241.103"
       id="text3173"><svg:tspan
         sodipodi:role="line"
         id="tspan3175"
         x="560.22601"
         y="241.103"
         style="font-size:32px;line-height:1.25;fill:#969696;fill-opacity:1;stroke:#969696;stroke-opacity:1">00000001 </svg:tspan></svg:text>
    <svg:text
       xml:space="preserve"
       style="font-style:normal;font-weight:normal;line-height:0%;font-family:'Bitstream Vera Sans';fill:#969696;fill-opacity:1;stroke:#969696;stroke-width:1px;stroke-linecap:butt;stroke-linejoin:miter;stroke-opacity:1"
       x="194.623"
       y="241.556"
       id="text3197"><svg:tspan
         sodipodi:role="line"
         id="tspan3199"
         x="194.623"
         y="241.556"
         style="font-size:32px;line-height:1.25;fill:#969696;fill-opacity:1;stroke:#969696;stroke-opacity:1">.</svg:tspan></svg:text>
    <svg:text
       xml:space="preserve"
       style="font-style:normal;font-weight:normal;line-height:0%;font-family:'Bitstream Vera Sans';fill:#969696;fill-opacity:1;stroke:#969696;stroke-width:1px;stroke-linecap:butt;stroke-linejoin:miter;stroke-opacity:1"
       x="370.89401"
       y="241.556"
       id="text3201"><svg:tspan
         sodipodi:role="line"
         id="tspan3203"
         x="370.89401"
         y="241.556"
         style="font-size:32px;line-height:1.25;fill:#969696;fill-opacity:1;stroke:#969696;stroke-opacity:1">.</svg:tspan></svg:text>
    <svg:text
       xml:space="preserve"
       style="font-style:normal;font-weight:normal;line-height:0%;font-family:'Bitstream Vera Sans';fill:#969696;fill-opacity:1;stroke:#969696;stroke-width:1px;stroke-linecap:butt;stroke-linejoin:miter;stroke-opacity:1"
       x="547.16602"
       y="241.556"
       id="text3205"><svg:tspan
         sodipodi:role="line"
         id="tspan3207"
         x="547.16602"
         y="241.556"
         style="font-size:32px;line-height:1.25;fill:#969696;fill-opacity:1;stroke:#969696;stroke-opacity:1">.</svg:tspan></svg:text>
    <svg:g
       id="g4261"
       transform="translate(-1.43991,6.79232)"
       style="fill:#969696;fill-opacity:1;stroke:#969696;stroke-opacity:1">
      <svg:path
         id="path3254"
         d="M 30.304576,256.44589 L 30.304576,271.59818 L 192.93914,271.59818 L 192.93914,256.44589"
         style="opacity:1;fill:#969696;fill-opacity:1;stroke:#969696;stroke-width:2;stroke-linecap:butt;stroke-linejoin:round;stroke-miterlimit:4;stroke-dasharray:none;stroke-opacity:1" />
      <svg:path
         id="path3256"
         d="M 108.67188,286.6479 L 108.67188,271.6479"
         style="opacity:1;fill:#969696;fill-opacity:1;stroke:#969696;stroke-width:2;stroke-linecap:butt;stroke-linejoin:round;stroke-miterlimit:4;stroke-dasharray:none;stroke-opacity:1" />
    </svg:g>
    <svg:path
       style="fill:#969696;fill-opacity:1;stroke:#969696;stroke-width:2;stroke-linecap:butt;stroke-linejoin:round;stroke-miterlimit:4;stroke-dasharray:none;stroke-opacity:1"
       d="M 103.31089,177.73419 L 103.21412,160.75008 L 116.47237,160.75009 L 116.71431,177.97613 L 125.56927,178.07291 L 110.27874,200.52484 L 94.794636,177.73419 L 103.31089,177.73419 z"
       id="path3261"
       sodipodi:nodetypes="cccccccc" />
    <svg:use
       x="0"
       y="0"
       xlink:href="#path3261"
       id="use4265"
       transform="translate(177.176,-4.07383e-4)"
       width="744.09448"
       height="1052.3622"
       style="fill:#969696;fill-opacity:1;stroke:#969696;stroke-opacity:1" />
    <svg:path
       sodipodi:nodetypes="cccccccc"
       id="path4267"
       d="M 460.90489,177.73419 L 460.80812,160.75008 L 474.06637,160.75009 L 474.30831,177.97613 L 483.16327,178.07291 L 467.87274,200.52484 L 452.38864,177.73419 L 460.90489,177.73419 z"
       style="fill:#969696;fill-opacity:1;stroke:#969696;stroke-width:2;stroke-linecap:butt;stroke-linejoin:round;stroke-miterlimit:4;stroke-dasharray:none;stroke-opacity:1" />
    <svg:path
       sodipodi:nodetypes="cccccccc"
       id="path4269"
       d="M 636.67143,177.73419 L 636.57466,160.75008 L 649.83291,160.75009 L 650.07485,177.97613 L 658.92981,178.07291 L 643.63928,200.52484 L 628.15518,177.73419 L 636.67143,177.73419 z"
       style="fill:#969696;fill-opacity:1;stroke:#969696;stroke-width:2;stroke-linecap:butt;stroke-linejoin:round;stroke-miterlimit:4;stroke-dasharray:none;stroke-opacity:1" />
    <svg:text
       xml:space="preserve"
       style="font-style:normal;font-weight:normal;line-height:0%;font-family:'Bitstream Vera Sans';fill:#969696;fill-opacity:1;stroke:#969696;stroke-width:1px;stroke-linecap:butt;stroke-linejoin:miter;stroke-opacity:1"
       x="58.697601"
       y="331.78"
       id="text4271"><svg:tspan
         sodipodi:role="line"
         id="tspan4273"
         x="58.697601"
         y="331.78"
         style="font-size:32px;line-height:1.25;fill:#969696;fill-opacity:1;stroke:#969696;stroke-opacity:1">1 octet</svg:tspan></svg:text>
    <svg:text
       xml:space="preserve"
       style="font-style:normal;font-weight:normal;line-height:0%;font-family:'Bitstream Vera Sans';fill:#969696;fill-opacity:1;stroke:#969696;stroke-width:1px;stroke-linecap:butt;stroke-linejoin:miter;stroke-opacity:1"
       x="245.108"
       y="331.78"
       id="text4275"><svg:tspan
         sodipodi:role="line"
         id="tspan4277"
         x="245.108"
         y="331.78"
         style="font-size:32px;line-height:1.25;fill:#969696;fill-opacity:1;stroke:#969696;stroke-opacity:1">8 bits</svg:tspan></svg:text>
    <svg:text
       xml:space="preserve"
       style="font-style:normal;font-weight:normal;line-height:0%;font-family:'Bitstream Vera Sans';fill:#969696;fill-opacity:1;stroke:#969696;stroke-width:1px;stroke-linecap:butt;stroke-linejoin:miter;stroke-opacity:1"
       x="204.68492"
       y="305.08487"
       id="text4279"
       transform="scale(0.9162624,1.0913904)"><svg:tspan
         sodipodi:role="line"
         id="tspan4281"
         x="204.68492"
         y="305.08487"
         style="font-size:29.3204px;line-height:1.25;fill:#969696;fill-opacity:1;stroke:#969696;stroke-opacity:1">=</svg:tspan></svg:text>
    <svg:g
       transform="translate(175.736,6.79232)"
       id="g4283"
       style="fill:#969696;fill-opacity:1;stroke:#969696;stroke-opacity:1">
      <svg:path
         style="opacity:1;fill:#969696;fill-opacity:1;stroke:#969696;stroke-width:2;stroke-linecap:butt;stroke-linejoin:round;stroke-miterlimit:4;stroke-dasharray:none;stroke-opacity:1"
         d="M 30.304576,256.44589 L 30.304576,271.59818 L 192.93914,271.59818 L 192.93914,256.44589"
         id="path4285" />
      <svg:path
         style="opacity:1;fill:#969696;fill-opacity:1;stroke:#969696;stroke-width:2;stroke-linecap:butt;stroke-linejoin:round;stroke-miterlimit:4;stroke-dasharray:none;stroke-opacity:1"
         d="M 108.67188,286.6479 L 108.67188,271.6479"
         id="path4287" />
    </svg:g>
    <svg:g
       id="g5269"
       transform="translate(1.51008,7.721247)"
       style="fill:#969696;fill-opacity:1;stroke:#969696;stroke-opacity:1">
      <svg:path
         id="path4295"
         d="M 26.263966,338.18433 L 26.263966,353.33662 L 716.19815,353.33662 L 716.19815,338.18433"
         style="opacity:1;fill:#969696;fill-opacity:1;stroke:#969696;stroke-width:2;stroke-linecap:butt;stroke-linejoin:round;stroke-miterlimit:4;stroke-dasharray:none;stroke-opacity:1" />
      <svg:path
         id="path5267"
         d="M 371.23106,369.36164 L 371.23106,354.20935"
         style="opacity:1;fill:#969696;fill-opacity:1;stroke:#969696;stroke-width:2;stroke-linecap:butt;stroke-linejoin:round;stroke-miterlimit:4;stroke-dasharray:none;stroke-opacity:1" />
    </svg:g>
    <svg:text
       xml:space="preserve"
       style="font-style:normal;font-weight:normal;line-height:0%;font-family:'Bitstream Vera Sans';fill:#969696;fill-opacity:1;stroke:#969696;stroke-width:1px;stroke-linecap:butt;stroke-linejoin:miter;stroke-opacity:1"
       x="183.72656"
       y="420.22601"
       id="text5273"><svg:tspan
         sodipodi:role="line"
         id="tspan5275"
         x="183.72656"
         y="420.22601"
         style="font-size:32px;line-height:1.25;fill:#969696;fill-opacity:1;stroke:#969696;stroke-opacity:1">32 bits ( 4 * 8 ), ou 4 octets</svg:tspan></svg:text>
  </svg:g>
  <script />
</svg:svg>
